[gd_resource type="SampleLibrary" load_steps=6 format=1]

[ext_resource path="res://sounds/absorb.smp" type="Sample" id=1]
[ext_resource path="res://sounds/deactivate.smp" type="Sample" id=2]
[ext_resource path="res://sounds/hit_ground.smp" type="Sample" id=3]
[ext_resource path="res://sounds/shoot.smp" type="Sample" id=4]
[ext_resource path="res://sounds/startup.smp" type="Sample" id=5]

[resource]

samples/absorb = {
"db": 0.0,
"pitch": 1.0,
"priority": 0,
"sample": ExtResource( 1 )
}
samples/deactivate = {
"db": 0.0,
"pitch": 1.0,
"priority": 0,
"sample": ExtResource( 2 )
}
samples/hit_ground = {
"db": 0.0,
"pitch": 1.0,
"priority": 0,
"sample": ExtResource( 3 )
}
samples/shoot = {
"db": 0.0,
"pitch": 1.0,
"priority": 0,
"sample": ExtResource( 4 )
}
samples/startup = {
"db": 0.0,
"pitch": 1.0,
"priority": 0,
"sample": ExtResource( 5 )
}

