[gd_scene load_steps=4 format=1]

[ext_resource path="res://images/projectile.png" type="Texture" id=1]
[ext_resource path="res://scripts/projectile.gd" type="Script" id=2]

[sub_resource type="CapsuleShape2D" id=1]

custom_solver_bias = 0.0
radius = 50.0
height = 266.667

[node name="projectile" type="Sprite"]

transform/scale = Vector2( 0.15, 0.15 )
texture = ExtResource( 1 )
script/script = ExtResource( 2 )

[node name="area" type="Area2D" parent="."]

input/pickable = true
shapes/0/shape = SubResource( 1 )
shapes/0/transform = Matrix32( -4.37114e-08, -1, 1, -4.37114e-08, 0, 0 )
shapes/0/trigger = false
gravity_vec = Vector2( 0, 1 )
gravity = 98.0
linear_damp = 0.1
angular_damp = 1.0

[node name="shape" type="CollisionShape2D" parent="area"]

transform/rot = 90.0
shape = SubResource( 1 )
trigger = false
_update_shape_index = 0

[connection signal="body_enter" from="area" to="." method="_on_area_body_enter"]


