[gd_scene load_steps=6 format=1]

[ext_resource path="res://objects/robot.tscn" type="PackedScene" id=1]
[ext_resource path="res://scripts/drone.gd" type="Script" id=2]
[ext_resource path="res://objects/drone_projectile.tscn" type="PackedScene" id=3]
[ext_resource path="res://images/drone_dead.png" type="Texture" id=4]
[ext_resource path="res://images/drone_body.png" type="Texture" id=5]

[node name="drone" groups=[
"power_source",
] instance=ExtResource( 1 )]

script/script = ExtResource( 2 )
projectile_scene = ExtResource( 3 )
dead_texture = ExtResource( 4 )
facing = 1

[node name="sprite" parent="hook"]

texture = ExtResource( 5 )

[node name="ray_forward" type="RayCast2D" parent="hook"]

transform/pos = Vector2( 63, 0 )
enabled = true
cast_to = Vector2( 50, 0 )
layer_mask = 1
type_mask = 15

[node name="ray_shoot" type="RayCast2D" parent="hook"]

transform/pos = Vector2( 63, 0 )
enabled = true
cast_to = Vector2( 1920, 0 )
layer_mask = 1
type_mask = 15

[node name="ray_left" type="RayCast2D" parent="."]

transform/pos = Vector2( -63, 61 )
enabled = true
cast_to = Vector2( 0, 70 )
layer_mask = 2
type_mask = 15

[node name="ray_right" type="RayCast2D" parent="."]

transform/pos = Vector2( 63, 61 )
enabled = true
cast_to = Vector2( 0, 70 )
layer_mask = 2
type_mask = 15

[node name="visibility_enabler" type="VisibilityEnabler2D" parent="."]

rect = Rect2( -64, -64, 128, 128 )
enabler/pause_animations = false
enabler/freeze_bodies = true
enabler/pause_particles = false
enabler/pause_animated_sprites = false
enabler/process_parent = false
enabler/fixed_process_parent = true


